<svg xmlns="http://www.w3.org/2000/svg" width="128" height="40" viewBox="0 0 128 40">
    <g fill="#FFF" fill-rule="evenodd">
        <path d="M123.257 34.734V12.948h4.598v21.786h-4.598zm0-24.675V5.294h4.598v4.765h-4.598zm-8.45-4.765h4.597v29.53h-4.597v-3.277c-1.696 2.403-4.173 3.604-7.43 3.604-2.763 0-5.171-1.037-7.223-3.112-2.053-2.075-3.08-4.805-3.08-8.19 0-3.386 1.054-6.088 3.16-8.108 2.109-2.02 4.619-3.03 7.534-3.03 2.914 0 5.26 1.228 7.039 3.685V5.294zM113 29.11c-1.258 1.324-2.79 1.986-4.597 1.986-1.806 0-3.38-.655-4.72-1.966-1.341-1.31-2.012-3.01-2.012-5.098 0-2.089.657-3.829 1.97-5.221 1.314-1.393 2.887-2.089 4.72-2.089 1.835 0 3.38.696 4.64 2.089 1.258 1.392 1.888 3.126 1.888 5.2 0 2.075-.63 3.775-1.889 5.099zm-23.199 5.712V5.293H94.4v29.53h-4.597zm-6.295-20.168c1.628 1.297 2.443 3.338 2.443 6.122v14.046h-4.188v-2.907c-1.805 2.157-4.227 3.235-7.265 3.235-2.271 0-4.152-.642-5.644-1.925-1.491-1.283-2.237-2.996-2.237-5.139 0-2.143.794-3.747 2.38-4.812 1.588-1.064 3.736-1.597 6.446-1.597h5.951v-.819c0-2.894-1.614-4.34-4.844-4.34-2.024 0-4.132.737-6.321 2.21l-2.052-2.866c2.655-2.102 5.665-3.153 9.03-3.153 2.573 0 4.673.648 6.301 1.945zm-2.155 12.06c0 1.392-.547 2.498-1.642 3.317-1.094.82-2.374 1.229-3.838 1.229s-2.606-.28-3.427-.84c-.82-.56-1.232-1.372-1.232-2.436 0-2.075 1.656-3.113 4.967-3.113h5.172v1.843zm-29.63 8.108l-8.785-21.785H47.7l6.65 16.462 6.65-16.462h4.76l-8.783 21.785h-5.254zM35.344 10.06V5.294h4.597v4.765h-4.597zm0 24.764V13.038h4.597v21.785h-4.597zM0 5.925L8.994.351l8.994 5.574-8.994 6.016L0 5.925zm8.994 10.571l8.994-6.01v21.938l-8.994 7.168L0 32.424V10.487l8.994 6.01z"/>
    </g>
</svg>
